%FSLAX44Y44*%
%MOMM*%
G71*
G01*
G75*
G04 Layer_Physical_Order=1*
G04 Layer_Color=255*
%ADD10R,2.0000X1.2000*%
%ADD11R,4.8000X2.8000*%
%ADD12R,1.1000X1.7000*%
%ADD13R,2.2000X6.2000*%
%ADD14R,3.4000X5.1000*%
%ADD15R,1.1000X1.3500*%
%ADD16R,2.2500X1.6000*%
%ADD17R,2.4500X2.1000*%
%ADD18R,3.6500X1.0500*%
%ADD19R,1.1000X2.9000*%
%ADD20R,10.5000X7.3000*%
%ADD21R,1.8500X0.5500*%
%ADD22R,2.0000X0.3000*%
%ADD23R,0.3000X2.0000*%
%ADD24R,6.7000X6.7000*%
%ADD25R,3.0000X1.6000*%
%ADD26C,1.0000*%
%ADD27C,0.5000*%
%ADD28C,0.3000*%
%ADD29C,0.2500*%
%ADD30C,1.5000*%
%ADD31R,1.5000X1.5000*%
%ADD32C,1.0000*%
G36*
X675000Y5000D02*
X5000D01*
Y530000D01*
X675000D01*
Y5000D01*
D02*
G37*
%LPC*%
G36*
X571250Y237700D02*
X548750D01*
Y228200D01*
X570753D01*
X588500Y210453D01*
Y199250D01*
X603500D01*
Y216750D01*
X592297D01*
X573573Y235473D01*
X572416Y236247D01*
X571250Y236479D01*
Y237700D01*
D02*
G37*
G36*
X220500Y325500D02*
X149500D01*
Y264485D01*
X140007Y254992D01*
X138885Y253530D01*
X138180Y251827D01*
X137940Y250000D01*
Y231804D01*
X136702Y230191D01*
X135744Y227880D01*
X135418Y225400D01*
X135744Y222920D01*
X136702Y220609D01*
X138224Y218625D01*
X140209Y217102D01*
X142520Y216145D01*
X145000Y215818D01*
X147480Y216145D01*
X149791Y217102D01*
X151775Y218625D01*
X153298Y220609D01*
X154255Y222920D01*
X154582Y225400D01*
X154255Y227880D01*
X153298Y230191D01*
X152060Y231804D01*
Y247076D01*
X159485Y254500D01*
X186961D01*
Y229000D01*
X187116Y228220D01*
X187558Y227558D01*
X196000Y219116D01*
Y214547D01*
X194477Y213023D01*
X193703Y211866D01*
X193431Y210500D01*
Y200000D01*
X185000D01*
Y184000D01*
X209000D01*
Y200000D01*
X200569D01*
Y206500D01*
X207515D01*
X228008Y186008D01*
X228008D01*
X228008Y186007D01*
X228008D01*
X228008Y186007D01*
Y186007D01*
X228008Y186007D01*
Y186007D01*
X229470Y184886D01*
X231173Y184180D01*
X233000Y183940D01*
X245000D01*
Y180814D01*
X209000D01*
Y181000D01*
X185000D01*
Y165000D01*
X209000D01*
Y174186D01*
X245000D01*
Y174000D01*
Y169000D01*
Y164000D01*
Y161000D01*
Y160814D01*
X183873D01*
X154408Y190278D01*
X154500Y190500D01*
X154500D01*
X154500Y190500D01*
Y209500D01*
X135500D01*
Y190500D01*
X144814D01*
X180157Y155157D01*
X181232Y154438D01*
X181442Y154397D01*
X182500Y154186D01*
X245000D01*
Y154000D01*
Y150814D01*
X213500D01*
X212442Y150603D01*
X212232Y150561D01*
X211157Y149843D01*
X184114Y122800D01*
X162750D01*
Y113300D01*
X185250D01*
Y114975D01*
X185318Y114988D01*
X186393Y115707D01*
X214872Y144186D01*
X218841D01*
X219327Y143013D01*
X186073Y109759D01*
X185250Y110100D01*
Y110100D01*
X185250Y110100D01*
X162750D01*
Y100600D01*
X185250D01*
Y102036D01*
X186350D01*
X187408Y102247D01*
X187618Y102289D01*
X188693Y103007D01*
X224872Y139186D01*
X226841D01*
X227327Y138013D01*
X186714Y97400D01*
X185250Y97400D01*
Y97400D01*
X162750D01*
Y87900D01*
X185250D01*
Y89336D01*
X186650D01*
X187708Y89547D01*
X187918Y89588D01*
X188993Y90307D01*
X232873Y134186D01*
X245000D01*
Y134000D01*
X269000D01*
Y139000D01*
Y144000D01*
Y149000D01*
Y154000D01*
Y159000D01*
Y164000D01*
Y169000D01*
Y174000D01*
Y179000D01*
Y180852D01*
X270173Y181338D01*
X280756Y170756D01*
X281412Y170100D01*
Y141098D01*
X271377Y131064D01*
X257250D01*
X256930Y131000D01*
X245000D01*
Y125814D01*
X231500D01*
X230232Y125561D01*
X229157Y124843D01*
X187577Y83264D01*
X185250D01*
Y84700D01*
X162750D01*
Y75200D01*
X185250D01*
Y76636D01*
X188950D01*
X190008Y76847D01*
X190218Y76888D01*
X191293Y77607D01*
X232873Y119186D01*
X234841D01*
X235327Y118013D01*
X187877Y70564D01*
X185250D01*
Y72000D01*
X162750D01*
Y62500D01*
X185250D01*
Y63936D01*
X189250D01*
X190308Y64147D01*
X190518Y64188D01*
X191593Y64907D01*
X240872Y114186D01*
X243841D01*
X244327Y113013D01*
X189177Y57864D01*
X185250D01*
Y59300D01*
X162750D01*
Y49800D01*
X185250D01*
Y51236D01*
X190550D01*
X191608Y51447D01*
X191818Y51488D01*
X192893Y52207D01*
X249686Y109000D01*
X269000D01*
Y114000D01*
Y119000D01*
Y124000D01*
Y124436D01*
X272750D01*
X273808Y124647D01*
X274018Y124689D01*
X275093Y125407D01*
X281513Y131827D01*
X282686Y131341D01*
Y105500D01*
X282500D01*
Y81500D01*
X297686D01*
Y49000D01*
X297897Y47942D01*
X297939Y47732D01*
X298657Y46657D01*
X325657Y19657D01*
X326732Y18939D01*
X326732Y18939D01*
X326732Y18939D01*
D01*
X326732Y18938D01*
X326732Y18939D01*
X328000Y18686D01*
X447000D01*
X448058Y18897D01*
X448268Y18939D01*
X449343Y19657D01*
X491323Y61636D01*
X496750D01*
Y60200D01*
X519250D01*
Y69700D01*
X496750D01*
Y68264D01*
X489950D01*
X488682Y68011D01*
X487607Y67293D01*
X445628Y25314D01*
X329373D01*
X304314Y50373D01*
Y53341D01*
X305487Y53827D01*
X329657Y29657D01*
X330732Y28939D01*
X330732Y28939D01*
X330732Y28939D01*
D01*
X330732Y28939D01*
X330732Y28939D01*
X332000Y28686D01*
X443000D01*
X444058Y28897D01*
X444268Y28939D01*
X445343Y29657D01*
X490023Y74336D01*
X496750D01*
Y72900D01*
X519250D01*
Y82400D01*
X496750D01*
Y80964D01*
X488650D01*
X487592Y80753D01*
X487382Y80711D01*
X486307Y79993D01*
X441628Y35314D01*
X333373D01*
X309314Y59373D01*
Y81500D01*
X317686D01*
Y57000D01*
X317897Y55942D01*
X317939Y55732D01*
X318657Y54657D01*
X333657Y39657D01*
X334732Y38939D01*
X334942Y38897D01*
X336000Y38686D01*
X439000D01*
X440058Y38897D01*
X440268Y38939D01*
X441343Y39657D01*
X488723Y87036D01*
X496750D01*
Y85600D01*
X519250D01*
Y95100D01*
X496750D01*
Y93664D01*
X487350D01*
X486292Y93453D01*
X486082Y93411D01*
X485007Y92693D01*
X437627Y45314D01*
X337373D01*
X324314Y58373D01*
Y61341D01*
X325487Y61827D01*
X337657Y49657D01*
X338732Y48939D01*
X338942Y48897D01*
X340000Y48686D01*
X435000D01*
X436058Y48897D01*
X436268Y48939D01*
X437343Y49657D01*
X487423Y99736D01*
X496750D01*
Y98300D01*
X519250D01*
Y107800D01*
X496750D01*
Y106364D01*
X486050D01*
X484992Y106153D01*
X484782Y106111D01*
X483707Y105393D01*
X433628Y55314D01*
X341372D01*
X329314Y67372D01*
Y81500D01*
X332686D01*
Y70686D01*
X332897Y69629D01*
X332939Y69418D01*
X333657Y68343D01*
X342343Y59657D01*
X343418Y58939D01*
X343418Y58939D01*
X343418Y58939D01*
D01*
X343418Y58938D01*
X343418Y58939D01*
X344686Y58686D01*
X431000D01*
X432058Y58897D01*
X432268Y58939D01*
X433343Y59657D01*
X486123Y112436D01*
X496750D01*
Y111000D01*
X519250D01*
Y120500D01*
X496750D01*
Y119064D01*
X484750D01*
X483692Y118853D01*
X483482Y118811D01*
X482407Y118093D01*
X429627Y65314D01*
X346059D01*
X339314Y72059D01*
Y75713D01*
X340487Y76199D01*
X347029Y69657D01*
X348104Y68939D01*
X348104Y68939D01*
X348104Y68939D01*
D01*
X348104Y68938D01*
X348104Y68939D01*
X349372Y68686D01*
X427000D01*
X428058Y68897D01*
X428268Y68939D01*
X429343Y69657D01*
X484823Y125136D01*
X496750D01*
Y123700D01*
X519250D01*
Y133200D01*
X496750D01*
Y131764D01*
X483450D01*
X482182Y131511D01*
X481107Y130793D01*
X425628Y75314D01*
X350745D01*
X344500Y81559D01*
Y105500D01*
X289314D01*
Y137859D01*
X290239Y139244D01*
X290588Y141000D01*
Y161066D01*
X291761Y161552D01*
X347500Y105814D01*
X347500Y105500D01*
X347500D01*
Y81500D01*
X354500D01*
Y105500D01*
X354314D01*
Y107000D01*
X354103Y108058D01*
X354061Y108268D01*
X353343Y109343D01*
X293173Y169513D01*
X293659Y170686D01*
X297000D01*
X298058Y170897D01*
X298268Y170939D01*
X299343Y171657D01*
X311873Y184186D01*
X358000D01*
Y184000D01*
X382000D01*
Y191000D01*
X358000D01*
Y190814D01*
X310500D01*
X309442Y190603D01*
X309232Y190561D01*
X308157Y189843D01*
X295627Y177314D01*
X287175D01*
X272744Y191744D01*
X271887Y192317D01*
X271820Y192827D01*
X271115Y194530D01*
X270230Y195683D01*
X271327Y196780D01*
X272500Y196294D01*
Y194500D01*
X279500D01*
Y206155D01*
X279569Y206500D01*
X279500Y206845D01*
Y218500D01*
X272500D01*
Y208047D01*
X262514Y198060D01*
X235924D01*
X220039Y213946D01*
Y254500D01*
X220500D01*
Y325500D01*
D02*
G37*
G36*
X571250Y225000D02*
X548750D01*
Y215500D01*
X570453D01*
X579431Y206522D01*
Y198000D01*
X579431Y198000D01*
X579431D01*
X579703Y196634D01*
X580477Y195477D01*
X588500Y187453D01*
Y179250D01*
X603500D01*
Y196750D01*
X589297D01*
X586569Y199478D01*
Y208000D01*
X586297Y209366D01*
X585523Y210523D01*
X573273Y222773D01*
X572116Y223547D01*
X571250Y223719D01*
Y225000D01*
D02*
G37*
G36*
X603500Y251750D02*
X588500D01*
Y249219D01*
X571250D01*
Y250400D01*
X548750D01*
Y240900D01*
X571250D01*
Y242081D01*
X588500D01*
Y234250D01*
X603500D01*
Y251750D01*
D02*
G37*
G36*
X519250Y407000D02*
X496750D01*
Y403436D01*
X475657Y382343D01*
X474939Y381268D01*
X474897Y381058D01*
X474686Y380000D01*
Y301373D01*
X416657Y243343D01*
X415939Y242268D01*
X415897Y242058D01*
X415686Y241000D01*
Y197373D01*
X389377Y171064D01*
X382000D01*
Y174000D01*
Y174436D01*
X386750D01*
X387808Y174647D01*
X388018Y174688D01*
X389093Y175407D01*
X403343Y189657D01*
X404061Y190732D01*
X404103Y190942D01*
X404314Y192000D01*
Y226290D01*
X405791Y226902D01*
X407775Y228424D01*
X409298Y230409D01*
X410256Y232720D01*
X410582Y235200D01*
X410256Y237680D01*
X409298Y239991D01*
X407775Y241975D01*
X405791Y243498D01*
X403480Y244455D01*
X401000Y244782D01*
X398520Y244455D01*
X396209Y243498D01*
X394225Y241975D01*
X392702Y239991D01*
X391745Y237680D01*
X391418Y235200D01*
X391745Y232720D01*
X392702Y230409D01*
X394225Y228424D01*
X396209Y226902D01*
X397686Y226290D01*
Y193373D01*
X385377Y181064D01*
X370250D01*
X369930Y181000D01*
X358000D01*
Y174000D01*
Y169000D01*
Y164000D01*
Y159000D01*
Y154000D01*
Y149000D01*
Y144000D01*
Y139000D01*
Y134000D01*
Y129000D01*
Y124000D01*
Y119000D01*
Y114000D01*
Y109000D01*
X382000D01*
Y114000D01*
Y119000D01*
Y124000D01*
Y129000D01*
Y129186D01*
X453500D01*
X454558Y129397D01*
X454768Y129438D01*
X455843Y130157D01*
X491343Y165657D01*
X492061Y166732D01*
X492061Y166732D01*
X492061Y166732D01*
X492314Y168000D01*
Y211628D01*
X496351Y215665D01*
X496750Y215500D01*
Y215500D01*
X496750Y215500D01*
X519250D01*
Y225000D01*
X496750D01*
Y223564D01*
X496250D01*
X494982Y223311D01*
X494625Y223073D01*
X493907Y222593D01*
X486657Y215343D01*
X485939Y214268D01*
X485897Y214058D01*
X485686Y213000D01*
Y169373D01*
X452127Y135814D01*
X449159D01*
X448673Y136987D01*
X481343Y169657D01*
X482061Y170732D01*
X482061Y170732D01*
X482061Y170732D01*
X482314Y172000D01*
Y215627D01*
X495577Y228890D01*
X496750Y228404D01*
Y228200D01*
X519250D01*
Y237700D01*
X496750D01*
Y236264D01*
X494950D01*
X493682Y236011D01*
X493325Y235773D01*
X492607Y235293D01*
X476657Y219343D01*
X475939Y218268D01*
X475897Y218058D01*
X475686Y217000D01*
Y173373D01*
X443127Y140814D01*
X440159D01*
X439673Y141987D01*
X471343Y173657D01*
X472061Y174732D01*
X472061Y174732D01*
X472061Y174732D01*
X472314Y176000D01*
Y219627D01*
X495023Y242336D01*
X496750D01*
Y240900D01*
X519250D01*
Y250400D01*
X496750D01*
Y248964D01*
X493650D01*
X492592Y248753D01*
X492382Y248711D01*
X491307Y247993D01*
X466657Y223343D01*
X465939Y222268D01*
X465897Y222058D01*
X465686Y221000D01*
Y177372D01*
X434127Y145814D01*
X431159D01*
X430673Y146987D01*
X461343Y177657D01*
X462061Y178732D01*
X462314Y180000D01*
X462314Y180000D01*
X462314Y180000D01*
Y180000D01*
Y223627D01*
X493722Y255036D01*
X496750D01*
Y253600D01*
X519250D01*
Y263100D01*
X496750D01*
Y261664D01*
X492350D01*
X491292Y261453D01*
X491082Y261411D01*
X490007Y260693D01*
X456657Y227343D01*
X455939Y226268D01*
X455897Y226058D01*
X455686Y225000D01*
Y181373D01*
X425127Y150814D01*
X422159D01*
X421673Y151987D01*
X451343Y181657D01*
X452061Y182732D01*
X452314Y184000D01*
X452314Y184000D01*
X452314Y184000D01*
Y184000D01*
Y227628D01*
X492422Y267736D01*
X496750D01*
Y266300D01*
X519250D01*
Y275800D01*
X496750D01*
Y274364D01*
X491050D01*
X489782Y274111D01*
X488707Y273393D01*
X446657Y231343D01*
X445939Y230268D01*
X445897Y230058D01*
X445686Y229000D01*
Y185373D01*
X416127Y155814D01*
X413159D01*
X412673Y156987D01*
X441343Y185657D01*
X442061Y186732D01*
X442314Y188000D01*
X442314Y188000D01*
X442314Y188000D01*
Y188000D01*
Y231628D01*
X491123Y280436D01*
X496750D01*
Y279000D01*
X519250D01*
Y288500D01*
X496750D01*
Y287064D01*
X489750D01*
X488692Y286853D01*
X488482Y286811D01*
X487407Y286093D01*
X436657Y235343D01*
X435939Y234268D01*
X435897Y234058D01*
X435686Y233000D01*
Y189373D01*
X407127Y160814D01*
X404159D01*
X403673Y161987D01*
X431343Y189657D01*
X432061Y190732D01*
X432314Y192000D01*
X432314Y192000D01*
X432314Y192000D01*
Y192000D01*
Y235627D01*
X489823Y293136D01*
X496750D01*
Y291700D01*
X519250D01*
Y301200D01*
X496750D01*
Y299764D01*
X488450D01*
X487392Y299553D01*
X487182Y299511D01*
X486107Y298793D01*
X426657Y239343D01*
X425939Y238268D01*
X425897Y238058D01*
X425686Y237000D01*
Y193373D01*
X398377Y166064D01*
X395409D01*
X394923Y167237D01*
X421343Y193657D01*
X422061Y194732D01*
X422314Y196000D01*
X422314Y196000D01*
X422314Y196000D01*
Y196000D01*
Y239627D01*
X480343Y297657D01*
X481061Y298732D01*
X481314Y300000D01*
X481314Y300000D01*
X481314Y300000D01*
Y300000D01*
Y378628D01*
X500186Y397500D01*
X519250D01*
Y407000D01*
D02*
G37*
G36*
X603500Y291750D02*
X588500D01*
Y284547D01*
X578572Y274618D01*
X571250D01*
Y275800D01*
X548750D01*
Y266300D01*
X571250D01*
Y267481D01*
X580050D01*
X581416Y267753D01*
X582573Y268527D01*
X582573Y268527D01*
X582573Y268527D01*
X588356Y274310D01*
X588500Y274250D01*
Y274250D01*
X588500Y274250D01*
X603500D01*
Y291750D01*
D02*
G37*
G36*
Y271750D02*
X588500D01*
Y261919D01*
X571250D01*
Y263100D01*
X548750D01*
Y253600D01*
X571250D01*
Y254781D01*
X588500D01*
Y254250D01*
X603500D01*
Y271750D01*
D02*
G37*
G36*
X91500Y404539D02*
X90720Y404384D01*
X90058Y403942D01*
X90058Y403942D01*
X67558Y381442D01*
X67116Y380780D01*
X66961Y380000D01*
Y217946D01*
X10007Y160992D01*
X8885Y159530D01*
X8180Y157827D01*
X7940Y156000D01*
Y99000D01*
Y24000D01*
X8180Y22173D01*
X8885Y20470D01*
X10007Y19008D01*
X17008Y12007D01*
X17008D01*
X17008Y12007D01*
X17008D01*
X17008Y12007D01*
Y12007D01*
X17008Y12007D01*
Y12007D01*
X18470Y10885D01*
X20173Y10180D01*
X22000Y9940D01*
X24000D01*
Y9000D01*
X48000D01*
Y25000D01*
D01*
Y25000D01*
X48000Y25000D01*
Y26000D01*
X48000D01*
Y29412D01*
X66000D01*
X67756Y29761D01*
X69244Y30756D01*
X88450Y49962D01*
X110750D01*
Y49800D01*
X133250D01*
Y59300D01*
X110750D01*
Y59138D01*
X86550D01*
X84794Y58789D01*
X83306Y57794D01*
X64099Y38588D01*
X48000D01*
Y42000D01*
D01*
Y42000D01*
X48000Y42000D01*
Y43000D01*
X48000D01*
Y46412D01*
X64000D01*
X65756Y46761D01*
X67244Y47756D01*
X82150Y62662D01*
X110750D01*
Y62500D01*
X133250D01*
Y72000D01*
X110750D01*
Y71838D01*
X80250D01*
X78494Y71489D01*
X77006Y70494D01*
X62099Y55588D01*
X48000D01*
Y59000D01*
D01*
Y59000D01*
X48000Y59000D01*
Y60000D01*
X48000D01*
Y63412D01*
X63000D01*
X64756Y63761D01*
X66244Y64756D01*
X76850Y75362D01*
X110750D01*
Y75200D01*
X133250D01*
Y84700D01*
X110750D01*
Y84538D01*
X74950D01*
X73194Y84189D01*
X71706Y83194D01*
X61099Y72588D01*
X48000D01*
Y76000D01*
X24000D01*
Y60000D01*
X24000Y60000D01*
X24000Y59000D01*
X24000D01*
Y43000D01*
X24000Y43000D01*
X24000Y42000D01*
X24000D01*
Y26644D01*
X23116Y26278D01*
X22060Y26984D01*
Y84939D01*
X24000D01*
Y84000D01*
X48000D01*
Y100000D01*
D01*
Y100000D01*
X48000Y100000D01*
Y101000D01*
D01*
X48000Y101412D01*
X56500D01*
Y93250D01*
X71500D01*
Y110750D01*
X56500D01*
Y110588D01*
X48000D01*
Y117000D01*
D01*
Y117000D01*
X48000Y117000D01*
Y118000D01*
X48000D01*
Y120412D01*
X56500D01*
Y113250D01*
X71500D01*
Y130750D01*
X56500D01*
Y129588D01*
X48000D01*
Y134000D01*
D01*
Y134000D01*
X48000Y134000D01*
Y135000D01*
X48000D01*
Y137412D01*
X56500D01*
Y133250D01*
X71500D01*
Y150750D01*
X56500D01*
Y146588D01*
X48000D01*
Y151000D01*
X24000D01*
Y135000D01*
X24000Y135000D01*
X24000Y134000D01*
X24000D01*
Y118000D01*
X24000Y118000D01*
X24000Y117000D01*
X24000D01*
Y101644D01*
X23116Y101278D01*
X22060Y101984D01*
Y153076D01*
X89239Y220254D01*
X90412Y219768D01*
Y170450D01*
X90761Y168694D01*
X91756Y167206D01*
X110753Y148208D01*
X110750Y148200D01*
X110750D01*
X110750Y148200D01*
Y138700D01*
X133250D01*
Y148200D01*
X123739D01*
X99588Y172351D01*
Y230603D01*
X99992Y231007D01*
X100435Y231584D01*
X100723Y231959D01*
X127934Y258865D01*
X127937Y258869D01*
X127942Y258873D01*
X128161Y259200D01*
X128379Y259524D01*
X128381Y259529D01*
X128384Y259534D01*
X128460Y259918D01*
X128539Y260303D01*
X128538Y260309D01*
X128539Y260315D01*
Y402500D01*
X128500Y402698D01*
Y404500D01*
X126697D01*
X126500Y404539D01*
X91500D01*
X91500Y404539D01*
D02*
G37*
G36*
X603500Y121750D02*
X588500D01*
Y116742D01*
X587756Y116244D01*
X579150Y107638D01*
X571250D01*
Y107800D01*
X548750D01*
Y98300D01*
X571250D01*
Y98462D01*
X581050D01*
X582806Y98811D01*
X584294Y99806D01*
X588739Y104250D01*
X603500D01*
Y121750D01*
D02*
G37*
G36*
Y101750D02*
X588500D01*
Y94938D01*
X571250D01*
Y95100D01*
X548750D01*
Y85600D01*
X571250D01*
Y85762D01*
X588500D01*
Y84250D01*
X603500D01*
Y101750D01*
D02*
G37*
G36*
X279500Y105500D02*
X272500D01*
Y81500D01*
X272686D01*
Y60000D01*
X272897Y58942D01*
X272939Y58732D01*
X273657Y57657D01*
X321657Y9657D01*
X322732Y8939D01*
X322942Y8897D01*
X324000Y8686D01*
X451000D01*
X452058Y8897D01*
X452268Y8939D01*
X453343Y9657D01*
X492623Y48936D01*
X496750D01*
Y47500D01*
X519250D01*
Y57000D01*
X496750D01*
Y55564D01*
X491250D01*
X490192Y55353D01*
X489982Y55311D01*
X488907Y54593D01*
X449627Y15314D01*
X325373D01*
X279314Y61373D01*
Y81500D01*
X279500D01*
Y105500D01*
D02*
G37*
G36*
X603500Y141750D02*
X588500D01*
Y136989D01*
X571850Y120338D01*
X571250D01*
Y120500D01*
X548750D01*
Y111000D01*
X571250D01*
Y111162D01*
X573750D01*
X575506Y111511D01*
X576994Y112506D01*
X588739Y124250D01*
X603500D01*
Y141750D01*
D02*
G37*
G36*
X185250Y135500D02*
X162750D01*
Y126000D01*
X185250D01*
Y135500D01*
D02*
G37*
G36*
X91500Y150750D02*
X76500D01*
Y133250D01*
X89262D01*
X90588Y131923D01*
X90102Y130750D01*
X76500D01*
Y113250D01*
X89261D01*
X90588Y111923D01*
X90102Y110750D01*
X76500D01*
Y93250D01*
X89261D01*
X92756Y89756D01*
X94244Y88761D01*
X96000Y88412D01*
X110750D01*
Y87900D01*
X133250D01*
Y97400D01*
X122946D01*
X122000Y97588D01*
X97900D01*
X91500Y103989D01*
Y109352D01*
X92673Y109838D01*
X100406Y102106D01*
Y102106D01*
D01*
Y102106D01*
D01*
X100406D01*
Y102106D01*
D01*
D01*
X100406D01*
X100406Y102106D01*
Y102106D01*
X100406Y102106D01*
Y102106D01*
X101894Y101111D01*
X103650Y100762D01*
X110750D01*
Y100600D01*
X133250D01*
Y110100D01*
X110750D01*
Y109938D01*
X105550D01*
X91500Y123989D01*
Y129352D01*
X92673Y129838D01*
X107706Y114806D01*
X109194Y113811D01*
X110750Y113502D01*
Y113300D01*
X133250D01*
Y122800D01*
X112689D01*
X110662Y124827D01*
X110794Y125146D01*
X110794D01*
X111148Y126000D01*
X133250D01*
Y135500D01*
X110750D01*
Y126398D01*
X109896Y126044D01*
Y126044D01*
X109577Y125912D01*
X91500Y143989D01*
Y150750D01*
D02*
G37*
G36*
X603500Y176750D02*
X588500D01*
Y163439D01*
X558261Y133200D01*
X548750D01*
Y123700D01*
X571250D01*
Y133200D01*
X571250Y133200D01*
X571250D01*
X571247Y133208D01*
X597289Y159250D01*
X603500D01*
Y176750D01*
D02*
G37*
G36*
X571250Y445100D02*
X548750D01*
Y435600D01*
X571250D01*
Y436782D01*
X586172D01*
X587500Y435453D01*
Y424250D01*
X602500D01*
Y441750D01*
X591297D01*
X590173Y442873D01*
X589016Y443647D01*
X587650Y443919D01*
X571250D01*
Y445100D01*
D02*
G37*
G36*
X519250Y457800D02*
X496750D01*
Y456364D01*
X494050D01*
X492782Y456111D01*
X491707Y455393D01*
X298657Y262343D01*
X297939Y261268D01*
X297897Y261058D01*
X297686Y260000D01*
Y218500D01*
X297500D01*
Y194500D01*
X354500D01*
Y218500D01*
X354314D01*
Y234627D01*
X396186Y276500D01*
X410500D01*
Y295500D01*
X391500D01*
Y281186D01*
X350487Y240173D01*
X349314Y240659D01*
Y261628D01*
X497886Y410200D01*
X519250D01*
Y419700D01*
X496750D01*
Y418025D01*
X496682Y418012D01*
X495607Y417293D01*
X343657Y265343D01*
X342939Y264268D01*
X342897Y264058D01*
X342686Y263000D01*
Y218500D01*
X324314D01*
Y250627D01*
X496634Y422948D01*
X496750Y422900D01*
Y422900D01*
X496750Y422900D01*
X519250D01*
Y432400D01*
X496750D01*
Y430964D01*
X496650D01*
X495382Y430712D01*
X494307Y429993D01*
X318657Y254343D01*
X317939Y253268D01*
X317897Y253058D01*
X317686Y252000D01*
Y218500D01*
X309314D01*
Y249627D01*
X495286Y435600D01*
X496750Y435600D01*
Y435600D01*
X519250D01*
Y445100D01*
X496750D01*
Y443664D01*
X495350D01*
X494292Y443453D01*
X494082Y443411D01*
X493007Y442693D01*
X305487Y255173D01*
X304314Y255659D01*
Y258627D01*
X495423Y449736D01*
X496750D01*
Y448300D01*
X519250D01*
Y457800D01*
D02*
G37*
G36*
X571250Y432400D02*
X548750D01*
Y422900D01*
X571250D01*
Y422997D01*
X572423Y423483D01*
X581430Y414477D01*
X581430D01*
X581430Y414477D01*
X581430D01*
X581430Y414477D01*
Y414477D01*
X581430Y414477D01*
Y414477D01*
X582588Y413703D01*
X583953Y413431D01*
X588500D01*
Y404250D01*
X603500D01*
Y421750D01*
X588500D01*
Y420569D01*
X585432D01*
X575827Y430173D01*
X574669Y430947D01*
X573303Y431219D01*
X571250D01*
Y432400D01*
D02*
G37*
G36*
X94250Y479000D02*
X68250D01*
Y413000D01*
X90803D01*
X91000Y412961D01*
X122592D01*
X130461Y404217D01*
Y374000D01*
X130500Y373804D01*
Y371500D01*
X145500D01*
Y373802D01*
X145539Y374000D01*
Y404217D01*
X153408Y412961D01*
X219000D01*
X219000Y412961D01*
X219197Y413000D01*
X254000D01*
Y468000D01*
X216000D01*
Y450884D01*
X212155Y447039D01*
X97845D01*
X94250Y450634D01*
Y479000D01*
D02*
G37*
G36*
X519250Y483200D02*
X496750D01*
Y481764D01*
X491450D01*
X490392Y481553D01*
X490182Y481511D01*
X489107Y480793D01*
X283657Y275343D01*
X282939Y274268D01*
X282897Y274058D01*
X282686Y273000D01*
Y218500D01*
X282500D01*
Y194500D01*
X294500D01*
Y218500D01*
X294314D01*
Y262628D01*
X494123Y462436D01*
X496750D01*
Y461000D01*
X519250D01*
Y470500D01*
X496750D01*
Y469064D01*
X492750D01*
X491482Y468811D01*
X490407Y468093D01*
X290487Y268173D01*
X289314Y268659D01*
Y271628D01*
X492823Y475136D01*
X496750D01*
Y473700D01*
X519250D01*
Y483200D01*
D02*
G37*
G36*
X603500Y494750D02*
X588500D01*
Y488547D01*
X570453Y470500D01*
X548750D01*
Y461000D01*
X571250D01*
Y462281D01*
X572116Y462453D01*
X573273Y463227D01*
X587649Y477602D01*
X588500Y477250D01*
Y477250D01*
X588500Y477250D01*
X603500D01*
Y494750D01*
D02*
G37*
G36*
X653000Y527060D02*
X488000D01*
X486173Y526820D01*
X484470Y526115D01*
X483008Y524992D01*
X457054Y499039D01*
X284000D01*
X283220Y498884D01*
X282558Y498442D01*
X262558Y478442D01*
X262116Y477780D01*
X261961Y477000D01*
Y407009D01*
X205243Y363750D01*
X194500D01*
Y346250D01*
X206053D01*
X206250Y346211D01*
X218905D01*
X230169Y334947D01*
X234500Y318587D01*
Y303000D01*
X265752D01*
X265897Y302963D01*
X265949Y302971D01*
X266000Y302961D01*
X266197Y303000D01*
X268500D01*
Y323000D01*
X268039D01*
Y344155D01*
X296845Y372961D01*
X366000D01*
X366780Y373116D01*
X367442Y373558D01*
X367442Y373558D01*
X489296Y495412D01*
X521100D01*
X530412Y486100D01*
Y218000D01*
Y50000D01*
X530412Y50000D01*
X530412D01*
X530761Y48244D01*
X531756Y46756D01*
X542206Y36306D01*
X543694Y35311D01*
X545450Y34962D01*
X548750D01*
Y34800D01*
X571250D01*
D01*
X571250D01*
X571412Y34638D01*
Y34000D01*
X571761Y32244D01*
X572756Y30756D01*
X588500Y15011D01*
Y9250D01*
X603500D01*
Y26750D01*
X589739D01*
X588412Y28077D01*
X588544Y28396D01*
Y28396D01*
X588898Y29250D01*
X603500D01*
Y46750D01*
X589739D01*
X588588Y47901D01*
Y49250D01*
X603500D01*
Y66750D01*
X593739D01*
X579594Y80894D01*
X578106Y81889D01*
X576350Y82238D01*
X571250D01*
Y82400D01*
X548750D01*
Y72900D01*
X571250D01*
Y73062D01*
X574450D01*
X587979Y59533D01*
X587670Y58301D01*
X587285Y58184D01*
X587244Y58244D01*
X577244Y68244D01*
X575756Y69239D01*
X574000Y69588D01*
X571250D01*
Y69700D01*
X548750D01*
Y60200D01*
X571250D01*
Y60412D01*
X572100D01*
X579412Y53099D01*
Y50736D01*
X578238Y50250D01*
X572994Y55494D01*
X571506Y56489D01*
X571250Y56540D01*
Y57000D01*
X548750D01*
Y47500D01*
X568011D01*
X570038Y45473D01*
X569552Y44300D01*
X548750D01*
Y44138D01*
X547350D01*
X539588Y51901D01*
Y205264D01*
X540761Y205750D01*
X542206Y204306D01*
X543694Y203311D01*
X545450Y202962D01*
X548750D01*
Y202800D01*
X571250D01*
Y212300D01*
X548750D01*
Y212138D01*
X547350D01*
X539588Y219900D01*
Y390264D01*
X540761Y390750D01*
X545206Y386306D01*
X546694Y385311D01*
X548450Y384962D01*
X548750D01*
Y384800D01*
X571250D01*
Y394300D01*
X550189D01*
X541244Y403244D01*
X539756Y404239D01*
X539588Y404272D01*
Y488000D01*
X539239Y489756D01*
X538244Y491244D01*
X526244Y503244D01*
X524756Y504239D01*
X523000Y504588D01*
X500131D01*
X499645Y505761D01*
X506824Y512940D01*
X588500D01*
Y508997D01*
X562703Y483200D01*
X548750D01*
Y473700D01*
X571250D01*
Y481653D01*
X587331Y497734D01*
X588500Y497250D01*
Y497250D01*
X588500Y497250D01*
X603500D01*
Y512940D01*
X608500D01*
Y497250D01*
X623500D01*
Y499412D01*
X632000D01*
Y493000D01*
X632000Y493000D01*
X632000Y492000D01*
X632000D01*
Y489588D01*
X623500D01*
Y494750D01*
X608500D01*
Y477250D01*
X623500D01*
Y480412D01*
X632000D01*
Y476000D01*
X632000Y476000D01*
X632000Y475000D01*
X632000D01*
Y472588D01*
X623500D01*
Y474750D01*
X608500D01*
Y457250D01*
X623500D01*
Y463412D01*
X632000D01*
Y459000D01*
X656000D01*
Y475000D01*
D01*
Y475000D01*
X656000Y475000D01*
Y476000D01*
X656000D01*
Y492000D01*
D01*
Y492000D01*
X656000Y492000D01*
Y493000D01*
X656000D01*
Y505356D01*
X656884Y505722D01*
X657940Y505016D01*
Y452925D01*
X656011Y450996D01*
X656000Y451000D01*
Y451000D01*
X656000Y451000D01*
X632000D01*
Y435000D01*
X632000Y435000D01*
X632000Y434000D01*
D01*
X632000Y433588D01*
X622500D01*
Y441750D01*
X607500D01*
Y424250D01*
X622500D01*
Y424412D01*
X632000D01*
Y418000D01*
X632000Y418000D01*
X632000Y417000D01*
X632000D01*
Y414588D01*
X623500D01*
Y421750D01*
X608500D01*
Y404250D01*
X623500D01*
Y405412D01*
X632000D01*
Y401000D01*
X632000Y401000D01*
X632000Y400000D01*
X632000D01*
Y397588D01*
X623500D01*
Y401750D01*
X608500D01*
Y384250D01*
X623500D01*
Y388412D01*
X632000D01*
Y384000D01*
X656000D01*
Y400000D01*
D01*
Y400000D01*
X656000Y400000D01*
Y401000D01*
X656000D01*
Y417000D01*
D01*
Y417000D01*
X656000Y417000D01*
Y418000D01*
X656000D01*
Y434000D01*
D01*
Y434000D01*
X656000Y434000D01*
Y435000D01*
D01*
X656000Y435940D01*
X657940D01*
Y377925D01*
X656011Y375996D01*
X656000Y376000D01*
Y376000D01*
X656000Y376000D01*
X632000D01*
Y360000D01*
X632000Y360000D01*
X632000Y359000D01*
D01*
X632000Y358588D01*
X623500D01*
Y366750D01*
X608500D01*
Y349250D01*
X623500D01*
Y349412D01*
X632000D01*
Y343000D01*
X632000Y343000D01*
X632000Y342000D01*
X632000D01*
Y339588D01*
X623500D01*
Y346750D01*
X608500D01*
Y329250D01*
X623500D01*
Y330412D01*
X632000D01*
Y326000D01*
X632000Y326000D01*
X632000Y325000D01*
X632000D01*
Y322588D01*
X623500D01*
Y326750D01*
X608500D01*
Y309250D01*
X623500D01*
Y313412D01*
X632000D01*
Y309000D01*
X656000D01*
Y325000D01*
D01*
Y325000D01*
X656000Y325000D01*
Y326000D01*
X656000D01*
Y342000D01*
D01*
Y342000D01*
X656000Y342000D01*
Y343000D01*
X656000D01*
Y359000D01*
D01*
Y359000D01*
X656000Y359000D01*
Y360000D01*
D01*
X656000Y360940D01*
X657940D01*
Y302925D01*
X656011Y300996D01*
X656000Y301000D01*
Y301000D01*
X656000Y301000D01*
X632000D01*
Y285000D01*
X632000Y285000D01*
X632000Y284000D01*
D01*
X632000Y283588D01*
X623500D01*
Y291750D01*
X608500D01*
Y274250D01*
X623500D01*
Y274412D01*
X632000D01*
Y268000D01*
X632000Y268000D01*
X632000Y267000D01*
X632000D01*
Y264588D01*
X623500D01*
Y271750D01*
X608500D01*
Y254250D01*
X623500D01*
Y255412D01*
X632000D01*
Y251000D01*
X632000Y251000D01*
X632000Y250000D01*
X632000D01*
Y247588D01*
X623500D01*
Y251750D01*
X608500D01*
Y234250D01*
X623500D01*
Y238412D01*
X632000D01*
Y234000D01*
X656000D01*
Y250000D01*
D01*
Y250000D01*
X656000Y250000D01*
Y251000D01*
X656000D01*
Y267000D01*
D01*
Y267000D01*
X656000Y267000D01*
Y268000D01*
X656000D01*
Y284000D01*
D01*
Y284000D01*
X656000Y284000D01*
Y285000D01*
D01*
X656000Y285940D01*
X657940D01*
Y227925D01*
X656011Y225996D01*
X656000Y226000D01*
Y226000D01*
X656000Y226000D01*
X632000D01*
Y210000D01*
X632000Y210000D01*
X632000Y209000D01*
D01*
X632000Y208588D01*
X623500D01*
Y216750D01*
X608500D01*
Y199250D01*
X623500D01*
Y199412D01*
X632000D01*
Y193000D01*
X632000Y193000D01*
X632000Y192000D01*
X632000D01*
Y189588D01*
X623500D01*
Y196750D01*
X608500D01*
Y179250D01*
X623500D01*
Y180412D01*
X632000D01*
Y176000D01*
X632000Y176000D01*
X632000Y175000D01*
X632000D01*
Y172588D01*
X623500D01*
Y176750D01*
X608500D01*
Y159250D01*
X623500D01*
Y163412D01*
X632000D01*
Y159000D01*
X656000D01*
Y175000D01*
D01*
Y175000D01*
X656000Y175000D01*
Y176000D01*
X656000D01*
Y192000D01*
D01*
Y192000D01*
X656000Y192000D01*
Y193000D01*
X656000D01*
Y209000D01*
D01*
Y209000D01*
X656000Y209000D01*
Y210000D01*
D01*
X656000Y210940D01*
X657940D01*
Y152925D01*
X656011Y150996D01*
X656000Y151000D01*
Y151000D01*
X656000Y151000D01*
X632000D01*
Y135000D01*
X632000Y135000D01*
X632000Y134000D01*
D01*
X632000Y133588D01*
X623500D01*
Y141750D01*
X608500D01*
Y124250D01*
X623500D01*
Y124412D01*
X632000D01*
Y118000D01*
X632000Y118000D01*
X632000Y117000D01*
X632000D01*
Y114588D01*
X623500D01*
Y121750D01*
X608500D01*
Y104250D01*
X623500D01*
Y105412D01*
X632000D01*
Y101000D01*
X632000Y101000D01*
X632000Y100000D01*
X632000D01*
Y97588D01*
X623500D01*
Y101750D01*
X608500D01*
Y84250D01*
X623500D01*
Y88412D01*
X632000D01*
Y84000D01*
X656000D01*
Y100000D01*
D01*
Y100000D01*
X656000Y100000D01*
Y101000D01*
X656000D01*
Y117000D01*
D01*
Y117000D01*
X656000Y117000D01*
Y118000D01*
X656000D01*
Y134000D01*
D01*
Y134000D01*
X656000Y134000D01*
Y135000D01*
D01*
X656000Y135940D01*
X657940D01*
Y77925D01*
X656011Y75996D01*
X656000Y76000D01*
Y76000D01*
X656000Y76000D01*
X632000D01*
Y60000D01*
X632000Y60000D01*
X632000Y59000D01*
D01*
X632000Y58588D01*
X623500D01*
Y66750D01*
X608500D01*
Y49250D01*
X623500D01*
Y49412D01*
X632000D01*
Y43000D01*
X632000Y43000D01*
X632000Y42000D01*
X632000D01*
Y39588D01*
X623500D01*
Y46750D01*
X608500D01*
Y29250D01*
X623500D01*
Y30412D01*
X632000D01*
Y26000D01*
X632000Y26000D01*
X632000Y25000D01*
X632000D01*
Y22588D01*
X623500D01*
Y26750D01*
X608500D01*
Y9250D01*
X623500D01*
Y13412D01*
X632000D01*
Y9000D01*
X656000D01*
Y25000D01*
D01*
Y25000D01*
X656000Y25000D01*
Y26000D01*
X656000D01*
Y42000D01*
D01*
Y42000D01*
X656000Y42000D01*
Y43000D01*
X656000D01*
Y59000D01*
D01*
Y59000D01*
X656000Y59000D01*
Y60000D01*
D01*
X656000Y60940D01*
X658000D01*
X659827Y61180D01*
X661530Y61886D01*
X662992Y63008D01*
X669993Y70008D01*
X671115Y71470D01*
X671820Y73173D01*
X672060Y75000D01*
Y150000D01*
Y225000D01*
Y300000D01*
Y375000D01*
Y450000D01*
Y508000D01*
X671820Y509827D01*
X671115Y511530D01*
X669993Y512992D01*
X657992Y524992D01*
X656530Y526115D01*
X654827Y526820D01*
X653000Y527060D01*
D02*
G37*
G36*
X603500Y474750D02*
X588500D01*
Y465547D01*
X579572Y456619D01*
X571250D01*
Y457800D01*
X548750D01*
Y448300D01*
X571250D01*
Y449482D01*
X581050D01*
X582416Y449753D01*
X583573Y450527D01*
X583573Y450527D01*
X583573Y450527D01*
X590297Y457250D01*
X603500D01*
Y474750D01*
D02*
G37*
G36*
X571250Y419700D02*
X548750D01*
Y410200D01*
X570753D01*
X588500Y392453D01*
Y392345D01*
X588431Y392000D01*
X588500Y391656D01*
Y384250D01*
X603500D01*
Y401750D01*
X589297D01*
X573573Y417473D01*
X572416Y418247D01*
X571250Y418479D01*
Y419700D01*
D02*
G37*
G36*
X179500Y404500D02*
X164500D01*
Y378196D01*
X164461Y378000D01*
Y371345D01*
X156866Y363750D01*
X154500D01*
Y346250D01*
X156803D01*
X157000Y346211D01*
X187000D01*
X187197Y346250D01*
X189500D01*
Y363750D01*
X187134D01*
X179539Y371345D01*
Y378000D01*
X179500Y378198D01*
Y404500D01*
D02*
G37*
G36*
X603500Y326750D02*
X588500D01*
Y309250D01*
X589544D01*
X590030Y308077D01*
X570453Y288500D01*
X548750D01*
Y279000D01*
X571250D01*
Y280281D01*
X572116Y280453D01*
X573273Y281227D01*
X598523Y306477D01*
X599297Y307634D01*
X599569Y309000D01*
Y309000D01*
X599569Y309000D01*
X600069Y309250D01*
X603500D01*
Y326750D01*
D02*
G37*
G36*
X571250Y407000D02*
X548750D01*
Y397500D01*
X570453D01*
X574431Y393522D01*
Y376000D01*
X574431Y376000D01*
X574431D01*
X574703Y374634D01*
X575477Y373477D01*
X588500Y360453D01*
Y349250D01*
X603500D01*
Y366750D01*
X592297D01*
X581569Y377478D01*
Y395000D01*
X581297Y396366D01*
X580523Y397523D01*
X573023Y405023D01*
X571866Y405797D01*
X571250Y405919D01*
Y407000D01*
D02*
G37*
G36*
X603500Y346750D02*
X588500D01*
Y338547D01*
X560477Y310523D01*
X559703Y309366D01*
X559431Y308000D01*
Y301200D01*
X548750D01*
Y291700D01*
X571250D01*
Y301200D01*
X566569D01*
Y306522D01*
X589297Y329250D01*
X603500D01*
Y346750D01*
D02*
G37*
%LPD*%
G36*
X488000Y497000D02*
X488000D01*
X366000Y375000D01*
X296000D01*
X266000Y345000D01*
Y305000D01*
X236500Y319000D01*
X232000Y336000D01*
X219750Y348250D01*
X206250D01*
X207000Y349000D01*
X200000D01*
Y361000D01*
X205000D01*
X264000Y406000D01*
Y477000D01*
X284000Y497000D01*
X459000D01*
X486000Y524000D01*
X515000D01*
X488000Y497000D01*
D02*
G37*
G36*
X218000Y208000D02*
X210000D01*
X189000Y229000D01*
Y260000D01*
X218000D01*
Y208000D01*
D02*
G37*
G36*
X177500Y370500D02*
X187000Y361000D01*
Y348250D01*
X157000D01*
Y361000D01*
X166500Y370500D01*
Y378000D01*
X177500D01*
Y370500D01*
D02*
G37*
G36*
X126500Y260315D02*
X78648Y213000D01*
X69000D01*
Y380000D01*
X91500Y402500D01*
X126500D01*
Y260315D01*
D02*
G37*
G36*
X224000Y420000D02*
X219000Y415000D01*
X152500D01*
X143500Y405000D01*
Y374000D01*
X132500D01*
Y405000D01*
X123500Y415000D01*
X91000D01*
X83000Y423000D01*
Y452000D01*
X90000D01*
X97000Y445000D01*
X213000D01*
X220000Y452000D01*
X224000D01*
Y420000D01*
D02*
G37*
D10*
X197000Y192000D02*
D03*
X197000Y173000D02*
D03*
X36000Y92000D02*
D03*
X644000Y518000D02*
D03*
Y501000D02*
D03*
Y484000D02*
D03*
Y467000D02*
D03*
Y392000D02*
D03*
Y409000D02*
D03*
Y426000D02*
D03*
Y443000D02*
D03*
Y317000D02*
D03*
Y334000D02*
D03*
Y351000D02*
D03*
Y368000D02*
D03*
Y242000D02*
D03*
Y259000D02*
D03*
Y276000D02*
D03*
Y293000D02*
D03*
Y167000D02*
D03*
Y184000D02*
D03*
Y201000D02*
D03*
Y218000D02*
D03*
Y92000D02*
D03*
Y109000D02*
D03*
Y126000D02*
D03*
Y143000D02*
D03*
Y17000D02*
D03*
Y34000D02*
D03*
Y51000D02*
D03*
Y68000D02*
D03*
X36000Y143000D02*
D03*
Y126000D02*
D03*
Y109000D02*
D03*
Y68000D02*
D03*
Y51000D02*
D03*
Y34000D02*
D03*
Y17000D02*
D03*
D11*
X40000Y242000D02*
D03*
X95000Y292000D02*
D03*
D12*
X211500Y239000D02*
D03*
X238500D02*
D03*
X203500Y217000D02*
D03*
X176500D02*
D03*
X195500Y239000D02*
D03*
X168500D02*
D03*
X287500Y337000D02*
D03*
X260500D02*
D03*
D13*
X81250Y446000D02*
D03*
X22750D02*
D03*
D14*
X235000Y440500D02*
D03*
X343000D02*
D03*
D15*
X616000Y506000D02*
D03*
X596000D02*
D03*
X616000Y486000D02*
D03*
X596000D02*
D03*
X616000Y466000D02*
D03*
X596000D02*
D03*
X615000Y433000D02*
D03*
X595000D02*
D03*
X616000Y413000D02*
D03*
X596000D02*
D03*
X616000Y393000D02*
D03*
X596000D02*
D03*
X616000Y358000D02*
D03*
X596000D02*
D03*
X616000Y338000D02*
D03*
X596000D02*
D03*
X616000Y318000D02*
D03*
X596000D02*
D03*
X616000Y283000D02*
D03*
X596000D02*
D03*
X616000Y263000D02*
D03*
X596000D02*
D03*
X616000Y243000D02*
D03*
X596000D02*
D03*
X616000Y208000D02*
D03*
X596000D02*
D03*
X616000Y188000D02*
D03*
X596000D02*
D03*
X616000Y168000D02*
D03*
X596000D02*
D03*
X616000Y133000D02*
D03*
X596000D02*
D03*
X616000Y113000D02*
D03*
X596000D02*
D03*
X616000Y93000D02*
D03*
X596000D02*
D03*
X616000Y58000D02*
D03*
X596000D02*
D03*
X616000Y38000D02*
D03*
X596000D02*
D03*
X616000Y18000D02*
D03*
X596000D02*
D03*
X64000Y102000D02*
D03*
X84000D02*
D03*
X64000Y122000D02*
D03*
X84000D02*
D03*
X64000Y142000D02*
D03*
X84000D02*
D03*
X202000Y355000D02*
D03*
X182000D02*
D03*
X162000D02*
D03*
X142000D02*
D03*
D16*
X441000Y516250D02*
D03*
Y485750D02*
D03*
D17*
X393000Y513750D02*
D03*
Y450250D02*
D03*
D18*
X89750Y362000D02*
D03*
X30250D02*
D03*
D19*
X121000Y388000D02*
D03*
X138000D02*
D03*
X155000D02*
D03*
X172000D02*
D03*
X189000D02*
D03*
D20*
X155000Y491500D02*
D03*
D21*
X560000Y389550D02*
D03*
Y402250D02*
D03*
Y414950D02*
D03*
Y427650D02*
D03*
Y440350D02*
D03*
Y453050D02*
D03*
Y465750D02*
D03*
Y478450D02*
D03*
X508000Y389550D02*
D03*
Y402250D02*
D03*
Y414950D02*
D03*
Y427650D02*
D03*
Y440350D02*
D03*
Y453050D02*
D03*
Y465750D02*
D03*
Y478450D02*
D03*
X560000Y39550D02*
D03*
Y52250D02*
D03*
Y64950D02*
D03*
Y77650D02*
D03*
Y90350D02*
D03*
Y103050D02*
D03*
Y115750D02*
D03*
Y128450D02*
D03*
X508000Y39550D02*
D03*
Y52250D02*
D03*
Y64950D02*
D03*
Y77650D02*
D03*
Y90350D02*
D03*
Y103050D02*
D03*
Y115750D02*
D03*
Y128450D02*
D03*
X122000Y143450D02*
D03*
Y130750D02*
D03*
Y118050D02*
D03*
Y105350D02*
D03*
Y92650D02*
D03*
Y79950D02*
D03*
Y67250D02*
D03*
Y54550D02*
D03*
X174000Y143450D02*
D03*
Y130750D02*
D03*
Y118050D02*
D03*
Y105350D02*
D03*
Y92650D02*
D03*
Y79950D02*
D03*
Y67250D02*
D03*
Y54550D02*
D03*
X560000Y207550D02*
D03*
Y220250D02*
D03*
Y232950D02*
D03*
Y245650D02*
D03*
Y258350D02*
D03*
Y271050D02*
D03*
Y283750D02*
D03*
Y296450D02*
D03*
X508000Y207550D02*
D03*
Y220250D02*
D03*
Y232950D02*
D03*
Y245650D02*
D03*
Y258350D02*
D03*
Y271050D02*
D03*
Y283750D02*
D03*
Y296450D02*
D03*
D22*
X257000Y187500D02*
D03*
Y182500D02*
D03*
Y177500D02*
D03*
Y172500D02*
D03*
Y167500D02*
D03*
Y162500D02*
D03*
Y157500D02*
D03*
Y152500D02*
D03*
Y147500D02*
D03*
Y142500D02*
D03*
Y137500D02*
D03*
Y132500D02*
D03*
Y127500D02*
D03*
Y122500D02*
D03*
Y117500D02*
D03*
Y112500D02*
D03*
X370000D02*
D03*
Y117500D02*
D03*
Y122500D02*
D03*
Y127500D02*
D03*
Y132500D02*
D03*
Y137500D02*
D03*
Y142500D02*
D03*
Y147500D02*
D03*
Y152500D02*
D03*
Y157500D02*
D03*
Y162500D02*
D03*
Y167500D02*
D03*
Y172500D02*
D03*
Y177500D02*
D03*
Y182500D02*
D03*
Y187500D02*
D03*
D23*
X276000Y93500D02*
D03*
X281000D02*
D03*
X286000D02*
D03*
X291000D02*
D03*
X296000D02*
D03*
X301000D02*
D03*
X306000D02*
D03*
X311000D02*
D03*
X316000D02*
D03*
X321000D02*
D03*
X326000D02*
D03*
X331000D02*
D03*
X336000D02*
D03*
X341000D02*
D03*
X346000D02*
D03*
X351000D02*
D03*
Y206500D02*
D03*
X346000D02*
D03*
X341000D02*
D03*
X336000D02*
D03*
X331000D02*
D03*
X326000D02*
D03*
X321000D02*
D03*
X316000D02*
D03*
X311000D02*
D03*
X306000D02*
D03*
X301000D02*
D03*
X296000D02*
D03*
X291000D02*
D03*
X286000D02*
D03*
X281000D02*
D03*
X276000D02*
D03*
D24*
X185000Y290000D02*
D03*
D25*
X251500Y313000D02*
D03*
Y267000D02*
D03*
D26*
X459000Y491000D02*
X488000Y520000D01*
X653000D01*
X665000Y508000D01*
Y450000D02*
Y508000D01*
X22000Y17000D02*
X36000D01*
X15000Y24000D02*
X22000Y17000D01*
X15000Y24000D02*
Y99000D01*
X22000Y92000D02*
X36000D01*
X15000Y99000D02*
X22000Y92000D01*
X145000Y225400D02*
Y250000D01*
X185000Y290000D01*
X644000Y68000D02*
X658000D01*
X665000Y75000D01*
X658000Y143000D02*
X665000Y150000D01*
X644000Y143000D02*
X658000D01*
Y218000D02*
X665000Y225000D01*
X644000Y218000D02*
X658000D01*
Y293000D02*
X665000Y300000D01*
X644000Y293000D02*
X658000D01*
Y368000D02*
X665000Y375000D01*
X644000Y368000D02*
X658000D01*
Y443000D02*
X665000Y450000D01*
X644000Y443000D02*
X658000D01*
X665000Y75000D02*
Y150000D01*
Y225000D01*
Y300000D01*
Y375000D01*
Y450000D01*
X642000Y518000D02*
X644000D01*
X203500Y217000D02*
X207000D01*
X233000Y191000D01*
X265000D01*
X15000Y99000D02*
Y156000D01*
X95000Y236000D01*
Y292000D01*
D27*
X523000Y500000D02*
X535000Y488000D01*
X468000Y500000D02*
X523000D01*
X535000Y218000D02*
Y488000D01*
X74950Y79950D02*
X122000D01*
X63000Y68000D02*
X74950Y79950D01*
X80250Y67250D02*
X122000D01*
X64000Y51000D02*
X80250Y67250D01*
X86550Y54550D02*
X122000D01*
X66000Y34000D02*
X86550Y54550D01*
X96000Y93000D02*
X122000D01*
X87000Y102000D02*
X96000Y93000D01*
X84000Y102000D02*
X87000D01*
X87000Y122000D02*
X103650Y105350D01*
X122000D01*
X110950Y118050D02*
X122000D01*
X87000Y142000D02*
X110950Y118050D01*
X36000Y51000D02*
X64000D01*
X36000Y34000D02*
X66000D01*
X36000Y142000D02*
X64000D01*
X36000Y125000D02*
X64000D01*
X36000Y106000D02*
X64000D01*
X616000Y54000D02*
X644000D01*
X616000Y35000D02*
X644000D01*
X616000Y18000D02*
X644000D01*
X616000Y129000D02*
X644000D01*
X616000Y110000D02*
X644000D01*
X616000Y93000D02*
X644000D01*
X616000Y204000D02*
X644000D01*
X616000Y185000D02*
X644000D01*
X616000Y168000D02*
X644000D01*
X616000Y279000D02*
X644000D01*
X616000Y260000D02*
X644000D01*
X616000Y243000D02*
X644000D01*
X616000Y354000D02*
X644000D01*
X616000Y335000D02*
X644000D01*
X616000Y318000D02*
X644000D01*
X616000Y429000D02*
X644000D01*
X616000Y410000D02*
X644000D01*
X616000Y393000D02*
X644000D01*
X616000Y504000D02*
X644000D01*
X616000Y485000D02*
X644000D01*
X616000Y468000D02*
X644000D01*
X560000Y52250D02*
X569750D01*
X592000Y18000D02*
X596000D01*
X592000Y38000D02*
X596000D01*
X560000Y65000D02*
X574000D01*
X560000Y77650D02*
X576350D01*
X596000Y58000D01*
X560000Y90350D02*
X593350D01*
X596000Y93000D01*
X560000Y128450D02*
X596000Y164450D01*
Y168000D01*
X36000Y68000D02*
X63000D01*
X574000Y65000D02*
X584000Y55000D01*
Y46000D02*
X592000Y38000D01*
X584000Y46000D02*
Y55000D01*
X569750Y52250D02*
X576000Y46000D01*
Y34000D02*
X592000Y18000D01*
X576000Y34000D02*
Y46000D01*
X560000Y115750D02*
X573750D01*
X593000Y135000D01*
X560000Y103050D02*
X581050D01*
X591000Y113000D01*
X596000D01*
X95000Y170450D02*
X122000Y143450D01*
X95000Y170450D02*
Y236000D01*
X545450Y39550D02*
X560000D01*
X535000Y50000D02*
X545450Y39550D01*
X535000Y218000D02*
X545450Y207550D01*
X560000D01*
X538000Y400000D02*
X548450Y389550D01*
X563000D01*
X269500Y188500D02*
X284000Y174000D01*
X258000Y188500D02*
X269500D01*
X535000Y50000D02*
Y218000D01*
X284000Y174000D02*
X286000Y172000D01*
Y141000D02*
Y172000D01*
D28*
X563000Y478450D02*
X592550Y508000D01*
X563000Y453050D02*
X581050D01*
X596000Y468000D01*
X563000Y440350D02*
X587650D01*
X595000Y433000D01*
X563000Y258350D02*
X591350D01*
X596000Y263000D01*
X563000Y245650D02*
X593350D01*
X596000Y243000D01*
X563000Y232950D02*
X571050D01*
X596000Y208000D01*
X563000Y283750D02*
X570750D01*
X596000Y309000D01*
Y318000D01*
X563000Y220250D02*
X570750D01*
X583000Y208000D01*
Y198000D02*
Y208000D01*
Y198000D02*
X593000Y188000D01*
X596000D01*
X563000Y271050D02*
X580050D01*
X592000Y283000D01*
X596000D01*
X563000Y296450D02*
Y308000D01*
X593000Y338000D01*
X596000D01*
X563000Y427650D02*
X573303D01*
X583953Y417000D01*
X592000D01*
X596000Y413000D01*
X592000Y392000D02*
X595000D01*
X578000Y376000D02*
X596000Y358000D01*
X567500Y402500D02*
X570500D01*
X578000Y395000D01*
Y376000D02*
Y395000D01*
X571050Y414950D02*
X592000Y394000D01*
X560000Y414950D02*
X571050D01*
X563000Y465750D02*
X570750D01*
X593000Y488000D01*
X258000Y188500D02*
X276000Y206500D01*
X197000Y192000D02*
Y210500D01*
X203500Y217000D01*
D29*
X491250Y52250D02*
X508000D01*
X451000Y12000D02*
X491250Y52250D01*
X341000Y80372D02*
Y88500D01*
Y80372D02*
X349372Y72000D01*
X336000Y70686D02*
Y88500D01*
Y70686D02*
X344686Y62000D01*
X326000Y66000D02*
Y88500D01*
Y66000D02*
X340000Y52000D01*
X321000Y57000D02*
Y88500D01*
Y57000D02*
X336000Y42000D01*
X306000Y58000D02*
Y88500D01*
Y58000D02*
X332000Y32000D01*
X301000Y49000D02*
Y88500D01*
Y49000D02*
X328000Y22000D01*
X276000Y60000D02*
Y88500D01*
Y60000D02*
X324000Y12000D01*
X451000D01*
X328000Y22000D02*
X447000D01*
X489950Y64950D01*
X508000D01*
X332000Y32000D02*
X443000D01*
X488650Y77650D01*
X508000D01*
X336000Y42000D02*
X439000D01*
X487350Y90350D01*
X508000D01*
X340000Y52000D02*
X435000D01*
X486050Y103050D01*
X508000D01*
X344686Y62000D02*
X431000D01*
X484750Y115750D01*
X508000D01*
X349372Y72000D02*
X427000D01*
X483450Y128450D01*
X508000D01*
X351000Y93500D02*
Y107000D01*
X286000Y172000D02*
X351000Y107000D01*
X257000Y127500D02*
X257250Y127750D01*
X310500Y187500D02*
X370000D01*
X284000Y174000D02*
X297000D01*
X310500Y187500D01*
X201500Y177500D02*
X257000D01*
X496250Y220250D02*
X508000D01*
X494950Y232950D02*
X508000D01*
X493650Y245650D02*
X508000D01*
X492350Y258350D02*
X508000D01*
X491050Y271050D02*
X508000D01*
X489750Y283750D02*
X508000D01*
X370000Y162500D02*
X370250Y162750D01*
X488450Y296450D02*
X508000D01*
X370000Y167500D02*
X370250Y167750D01*
X489000Y213000D02*
X496250Y220250D01*
X479000Y217000D02*
X494950Y232950D01*
X469000Y221000D02*
X493650Y245650D01*
X459000Y225000D02*
X492350Y258350D01*
X449000Y229000D02*
X491050Y271050D01*
X439000Y233000D02*
X489750Y283750D01*
X429000Y237000D02*
X488450Y296450D01*
X419000Y241000D02*
X478000Y300000D01*
X370000Y132500D02*
X453500D01*
X489000Y168000D01*
Y213000D01*
X370000Y137500D02*
X444500D01*
X479000Y172000D01*
Y217000D01*
X370000Y142500D02*
X435500D01*
X469000Y176000D01*
Y221000D01*
X370000Y147500D02*
X426500D01*
X459000Y180000D01*
Y225000D01*
X370000Y152500D02*
X417500D01*
X449000Y184000D01*
Y229000D01*
X370000Y157500D02*
X408500D01*
X439000Y188000D01*
Y233000D01*
X370250Y162750D02*
X399750D01*
X429000Y192000D01*
Y237000D01*
X370250Y167750D02*
X390750D01*
X419000Y196000D01*
Y241000D01*
X370000Y177500D02*
X370250Y177750D01*
X386750D01*
X478000Y300000D02*
Y380000D01*
X500250Y402250D01*
X508000D01*
X286000Y206500D02*
Y273000D01*
X491450Y478450D01*
X508000D01*
X291000Y206500D02*
Y264000D01*
X492750Y465750D01*
X508000D01*
X301000Y206500D02*
Y260000D01*
X494050Y453050D01*
X508000D01*
X306000Y206500D02*
Y251000D01*
X495350Y440350D01*
X508000D01*
X321000Y206500D02*
Y252000D01*
X496650Y427650D01*
X508000D01*
X346000Y206500D02*
Y263000D01*
X497950Y414950D01*
X508000D01*
X386750Y177750D02*
X401000Y192000D01*
Y235200D01*
X351000Y236000D02*
X401000Y286000D01*
X351000Y206500D02*
Y236000D01*
X197000Y173000D02*
X201500Y177500D01*
X145000Y195000D02*
Y200000D01*
Y195000D02*
X182500Y157500D01*
X257000D01*
X174000Y54550D02*
X190550D01*
X248500Y112500D01*
X257000D01*
X174000Y67250D02*
X189250D01*
X239500Y117500D01*
X257000D01*
X174000Y79950D02*
X188950D01*
X231500Y122500D01*
X257000D01*
X174000Y92650D02*
X186650D01*
X231500Y137500D01*
X257000D01*
X181050Y118050D02*
X184050D01*
X213500Y147500D01*
X257000D01*
X182350Y105350D02*
X186350D01*
X223500Y142500D01*
X257000D01*
X286000Y93500D02*
Y141000D01*
X257250Y127750D02*
X272750D01*
X286000Y141000D01*
D30*
X145000Y225400D02*
D03*
X401000Y260600D02*
D03*
Y235200D02*
D03*
D31*
X145000Y200000D02*
D03*
X401000Y286000D02*
D03*
D32*
X263000Y239000D02*
D03*
X40000Y242000D02*
D03*
X508000Y24000D02*
D03*
Y192000D02*
D03*
Y374000D02*
D03*
X393000Y513750D02*
D03*
X155000Y491500D02*
D03*
X156000Y153000D02*
D03*
X258000Y100000D02*
D03*
X293000Y185000D02*
D03*
X441000Y516250D02*
D03*
X560000Y347000D02*
D03*
Y177000D02*
D03*
M02*
