Added Component: Designator=P2(HDR1X2)
Added Pin To Net: NetName=V33 Pin=P2-2
Added Pin To Net: NetName=NetD3_7 Pin=D3-7
Added Pin To Net: NetName=NetD3_7 Pin=P2-1
Added Net: Name=NetD3_7
Added Member To Class: ClassName=Main Member=Component P2 Header 2
