Removed Pin From Net: NetName=VCTRL Pin=R8-1
Removed Pin From Net: NetName=GND Pin=R9-1
Removed Pin From Net: NetName=GND Pin=R15-1
Removed Pin From Net: NetName=V5POWER Pin=U1-3
Removed Pin From Net: NetName=V5POWER Pin=U2-1
Removed Pin From Net: NetName=V12POWER Pin=U2-3
Removed Pin From Net: NetName=V12 Pin=U2-5
Removed Pin From Net: NetName=V12 Pin=U2-6
Removed Pin From Net: NetName=V5 Pin=U2-7
Removed Pin From Net: NetName=V5 Pin=U2-8
Removed Member From Class: ClassName=Main Member=R8
Removed Member From Class: ClassName=Main Member=R9
Removed Member From Class: ClassName=Main Member=R15
Removed Member From Class: ClassName=Main Member=U1
Removed Member From Class: ClassName=Main Member=U2
