Added Component: Designator=LED1(smd5050)
Added Component: Designator=R1(smd1206)
Added Component: Designator=R2(smd1206)
Added Component: Designator=R3(smd1206)
Added Member To Class: ClassName=Sheet1 Member=Component LED1 LED rgb smd5050 (WAYJUN)
Added Member To Class: ClassName=Sheet1 Member=Component R1 R smd1206
Added Member To Class: ClassName=Sheet1 Member=Component R2 R smd1206
Added Member To Class: ClassName=Sheet1 Member=Component R3 R smd1206
Added Room: Name=Sheet1
