Change Physical Footprint: Designator=LED1 Old Footprint=SMD5050 New Footprint=smd5050
Change Physical Footprint: Designator=R1 Old Footprint=SMD1206 New Footprint=smd1206
Change Physical Footprint: Designator=R2 Old Footprint=SMD1206 New Footprint=smd1206
Change Physical Footprint: Designator=R3 Old Footprint=SMD1206 New Footprint=smd1206
