M48
;Layer_Color=9474304
;FILE_FORMAT=4:4
METRIC,LZ
;TYPE=PLATED
T1F00S00C0.6000
T2F00S00C0.9000
%
T01
X0004Y00242
X00156Y00153
X00258Y001
X00293Y00185
X00263Y00239
X00508Y00192
X0056Y00177
Y00347
X00508Y00374
Y00024
X00441Y0051625
X00393Y0051375
X00155Y004915
T02
X00145Y002
Y002254
X00401Y002352
Y002606
Y00286
M30
